%YAML 1.1
%TAG !u! tag:unity3d.com,2011:
--- !u!21 &2100000
Material:
  serializedVersion: 6
  m_ObjectHideFlags: 0
  m_CorrespondingSourceObject: {fileID: 0}
  m_PrefabInstance: {fileID: 0}
  m_PrefabAsset: {fileID: 0}
  m_Name: skeleton_Material
  m_Shader: {fileID: 4800000, guid: 64005298b9a80bb4899eabd5140dc4a8, type: 3}
  m_ShaderKeywords: _ALPHAPREMULTIPLY_ON _OLD_HARD_RAMP _USE8NEIGHBOURHOOD_ON
  m_LightmapFlags: 4
  m_EnableInstancingVariants: 0
  m_DoubleSidedGI: 0
  m_CustomRenderQueue: 3000
  stringTagMap:
    AlphaDepth: true
    IGNOREPROJECTOR: true
    RenderType: Transparent
  disabledShaderPasses: []
  m_SavedProperties:
    serializedVersion: 3
    m_TexEnvs:
    - _BlendTex:
        m_Texture: {fileID: 0}
        m_Scale: {x: 1, y: 1}
        m_Offset: {x: 0, y: 0}
    - _BumpMap:
        m_Texture: {fileID: 0}
        m_Scale: {x: 1, y: 1}
        m_Offset: {x: 0, y: 0}
    - _DiffuseRamp:
        m_Texture: {fileID: 0}
        m_Scale: {x: 1, y: 1}
        m_Offset: {x: 0, y: 0}
    - _EmissionMap:
        m_Texture: {fileID: 0}
        m_Scale: {x: 1, y: 1}
        m_Offset: {x: 0, y: 0}
    - _MainTex:
        m_Texture: {fileID: 2800000, guid: 0e21e965e1b3980408a921412db4a567, type: 3}
        m_Scale: {x: 1, y: 1}
        m_Offset: {x: 0, y: 0}
    - _MetallicGlossMap:
        m_Texture: {fileID: 0}
        m_Scale: {x: 1, y: 1}
        m_Offset: {x: 0, y: 0}
    m_Floats:
    - PixelSnap: 0
    - _BlendAmount: 0
    - _Brightness: 1
    - _BumpScale: 1
    - _Cull: 0
    - _CustomRenderQueue: 0
    - _Cutoff: 0.1
    - _DarkColorAlphaAdditive: 0
    - _DoubleSidedLighting: 0
    - _DstBlend: 10
    - _EmissionPower: 2
    - _GlossMapScale: 1
    - _Glossiness: 0.5
    - _Hue: 0
    - _Metallic: 0
    - _OutlineMipLevel: 0
    - _OutlineReferenceTexWidth: 1024
    - _OutlineSmoothness: 1
    - _OutlineWidth: 3
    - _RenderQueue: 0
    - _RimPower: 2
    - _Saturation: 1
    - _ShadowAlphaCutoff: 0.1
    - _SrcBlend: 1
    - _StencilComp: 8
    - _StencilRef: 1
    - _StraightAlphaInput: 0
    - _ThresholdEnd: 0.25
    - _Use8Neighbourhood: 1
    - _ZWrite: 0
    m_Colors:
    - _Black: {r: 0, g: 0, b: 0, a: 0}
    - _Color: {r: 1, g: 1, b: 1, a: 1}
    - _EmissionColor: {r: 0, g: 0, b: 0, a: 0}
    - _FixedNormal: {r: 0, g: 0, b: 1, a: 1}
    - _OutlineColor: {r: 1, g: 1, b: 0, a: 1}
    - _OverlayColor: {r: 0, g: 0, b: 0, a: 0}
    - _RimColor: {r: 1, g: 1, b: 1, a: 1}
  m_BuildTextureStacks: []
